1. Произвести операцию побитового дополнения для значений: 0001, 0010, 0100, 1000, 1001, 1100;
2. Произвести операцию побитового сдвига (<<, >>) для значений: 0001, 0010, 0100, 1000, 1001, 1100;
3. Произвести операцию логического И (&): 0001 и 0010, 0100 и 1000, 1001 и 1100;
4. Произвести операцию логического исключения ИЛИ (^): 0001 и 0010, 0100 и 1000, 1001 и 1100;
5. Произвести операцию логического ИЛИ (|): 0001 и 0010, 0100 и 1000, 1001 и 1100;

Для проведения операций использовать тип int