product_id;qty;price;category;name;product_manufacturer_id
2;0.00;140.00;Flagman;Катушка FLAGMAN Mantaray match 400;2
5;1.00;3.900;RS Sport;Прикормка RS Лещ спорт чёрный;93
25;0.00;13.00;Boxer XS 40F;Воблер Kosadaka Boxer XS;59
53;1.00;13.00;ION XD 70;Воблер Kosadaka ION XD;59
75;0.00;14.00;MIRAGE XS 85F;Воблер Kosadaka MIRAGE XS 85F;59
329;0.00;9.600;SABLETTA;Блесна колебл. Pontoon21 SABLETTA, 87мм, 28,0 гр., #G82-208-GOLD;85
342;0.00;7.900;SINUOSO;Блесна колебл. Pontoon21 SINUOSO, 24гр., #NC02-001;85
347;0.00;7.500;Pontoon21 SYNCHRONY N5;Блесна вращ. Pontoon21 SYNCHRONY, #5, #T02-082;85
348;0.00;7.800;Pontoon21 TRAIT  N4;Блесна вращ. Pontoon21 TRAIT, #4, #BT01-054;85
985;0.00;42.500;Super PE;Шнур плетёный SUNLINE SUPER PE #0.6 (0,128мм) Тёмно зелёный;105
1027;0.00;130.00;Blue Bird;Спиннинг Favorite Blue Bird NEW BB-682UL-S 2.04m 1-7g Ex-Fast;37